#Designed and coded by: Pivert08

G81_sthanan_column_1 = {
    slot = 1
    generic = no
	ai = yes
	potential = {
		OR = {
			tag = G81
			AND = {
				tag = J84 #Taychendi Empire
				was_tag = G81
			}
			AND = {
				tag = U39 #Orenvalyam
				was_tag = G81
			}
		}
	} 
	has_country_shield = yes

    G81_concealed_knowledge = {
		icon = mission_court_education
		position = 2
		required_missions = {
			
		}

        trigger = {
            OR = {
                advisor = theologian
                advisor = philosopher
                adm_power = 100
            }
            treasury = 100
        }

        effect = {
            if = {
                limit = {
                    NOT = {
                        advisor = theologian
                        advisor = philosopher
                    }
                }
                add_adm_power = -100
            }
            add_treasury = -100
            2541 = {
                add_institution_embracement = {
                    which = feudalism
                    value = 50
                }
                add_province_modifier = {
                    name = G81_the_dumran_vustarvach_modifier
                    duration = 5475
                }
            }
        }
    }

    G81_past_and_future = {
		icon = mission_star_comet
		position = 3
		required_missions = {
			G81_concealed_knowledge
		}

        provinces_to_highlight = {
			OR = {
                AND = {
                    region = southern_coast_region
                    NOT = { 
                        base_tax = 5
                    }
                    NOT = {
                        calc_true_if = {
                            amount = 7
                            ROOT = {
                                all_owned_province = {
                                    region = southern_coast_region
	                                base_tax = 5
                                }
                            }   
                        }		
                    }
                }
                AND = {
                    province_id = 2525
                    has_tax_building_trigger = no
                }
            }    
		}

        trigger = {
            num_of_provinces_owned_or_owned_by_non_sovereign_subjects_with = {
	            value = 7
	            region = southern_coast_region
	            base_tax = 5
            }
            2525 = {
                country_or_non_sovereign_subject_holds = ROOT
                has_tax_building_trigger = yes
            }
            has_estate_privilege = estate_church_one_faith_one_culture
            estate_loyalty = {
                estate = estate_church
                loyalty = 60
            }
            taychend_hero_cult_has_passed_reform = { reform = 2 }
        }

        effect = {
            country_event = {
                id = sthanan_events.3
            }
        }
    }
}

G81_sthanan_column_2 = {
    slot = 2
    generic = no
	ai = yes
	potential = {
		OR = {
			tag = G81
			AND = {
				tag = J84 #Taychendi Empire
				was_tag = G81
			}
			AND = {
				tag = U39 #Orenvalyam
				was_tag = G81
			}
		}
	} 
	has_country_shield = yes

    G81_the_land_of_gardens = {
		icon = mission_che_botanical_exports
		position = 3
		required_missions = {
			G81_concealed_knowledge
		}

        provinces_to_highlight = {
			area = tirsin_area
			NOT = { 
                AND = {
                    country_or_non_sovereign_subject_holds = ROOT 
                    base_production = 6
                }
            } 
		}

        trigger = {
            tirsin_area = {
                type = all
                country_or_non_sovereign_subject_holds = ROOT
                base_production = 6
            }
        }

        effect = {
            2541 = {
                add_province_modifier = {
                    name = G81_gifts_of_the_nakadi
                    duration = -1
                }
                if = {
                    limit = {
                        province_has_center_of_trade_of_level = 2
                    }
                    ROOT = {
                        add_treasury = 200
                    }
                }
                else = {
                    add_center_of_trade_level = 1
                }
            }
        }
    }

    G81_city_of_violet_cloth = {
		icon = mission_arverynn_street
		position = 4
		required_missions = {
			G81_past_and_future
            G81_the_land_of_gardens
		}

        provinces_to_highlight = {
			OR = {
                AND = {
                    province_id = 2541
                    NOT = {
                        AND = {
                            development = 35
                            has_tax_building_trigger = yes
                            has_production_building_trigger = yes
                            has_trade_building_trigger = yes
                            if = {
					            limit = { has_dlc = "Leviathan" }
					            num_of_times_expanded_infrastructure = 1
				            }
                        }
                    }
                }
                AND = {
                    province_id = 2521
                    NOT = {
                        has_production_building_trigger = yes
                    }
                }
                AND = {
                    province_id = 2544
                    NOT = {
                        has_production_building_trigger = yes
                    }
                }
            }
		}

        trigger = {
            2541 = {
                development = 35
                has_tax_building_trigger = yes
                has_production_building_trigger = yes
                has_trade_building_trigger = yes
                if = {
					limit = { has_dlc = "Leviathan" }
					num_of_times_expanded_infrastructure = 1
				}
            }
            2521 = {
                has_production_building_trigger = yes
            }
            2544 = {
                has_production_building_trigger = yes
            }
        }

        effect = {
            2541 = {
                add_province_modifier = {
                    name = G81_city_of_violet_cloth_modifier
                    duration = -1
                }
            }
        }
    }
}

G81_sthanan_column_3 = {
    slot = 3
    generic = no
	ai = yes
	potential = {
		OR = {
			tag = G81
			AND = {
				tag = J84 #Taychendi Empire
				was_tag = G81
			}
			AND = {
				tag = U39 #Orenvalyam
				was_tag = G81
			}
		}
	} 
	has_country_shield = yes

    G81_a_revenge_overdue = {
		icon = mission_conquer_50_development
		position = 1
		required_missions = {
			
		}

        provinces_to_highlight = {
			OR = {
                AND = {
                    area = sibisimra_area
			        NOT = { 
                        country_or_non_sovereign_subject_holds = ROOT 
                    }
                }
                AND = {
                    province_id = 2539
                    NOT = {
						num_of_units_in_province = {
							amount = 10
							who = ROOT
						}
					}
                }
            }
		}

        trigger = {
            sibisimra_area = {
                type = all
                country_or_non_sovereign_subject_holds = ROOT
            }
            2539 = {
                num_of_units_in_province = {
                    who = ROOT
                    amount = 10
                }
            }
        }

        effect = {
            country_event = {
                id = sthanan_events.1
            }
        }
    }

    G81_woodsmen_drills = {
		icon = mission_rb_unite_the_clans
		position = 2
		required_missions = {
			G81_a_revenge_overdue
		}

        provinces_to_highlight = {
			OR = {
                area = sibisimra_area
                area = sthanan_ith_vussam_area
            }
			NOT = { 
                base_manpower = 3
            } 
		}

        trigger = {
            army_professionalism = 0.05
            OR = {
                advisor = army_organiser
                advisor = army_reformer
                mil_power = 100
            }
            sthanan_ith_vussam_area = {
                type = all
                OR = {
                    province_id = 2541
                    base_manpower = 3
                }
            }
            sibisimra_area = {
                type = all
                base_manpower = 3
            }
            OR = {
                2539 = {
                    has_manpower_building_trigger = yes
                    has_any_ongoing_construction = no
                }
                treasury = 100
            }
        }

        effect = {
            if = {
                limit = {
                    NOT = {
                        advisor = army_organiser
                        advisor = army_reformer
                    }
                }
                add_mil_power = -100
            }
            sthanan_ith_vussam_area = {
                if = {
                    limit = {
                        NOT = {
                            province_id = 2541
                        }
                    }
                }  
                add_province_modifier = {
                    name = G81_woodsmen_levies
                    duration = -1
                }
            }
            sibisimra_area = {
                add_province_modifier = {
                    name = G81_woodsmen_levies
                    duration = -1
                }
            }
            if = {
                limit = {
                    NOT = {
                        2539 = {
                            has_manpower_building_trigger = yes
                        }
                    }
                }
                add_treasury = -100
                2539 = {
                    add_building_construction = {
                        building = barracks
                        speed = 0.5
                        cost = 0
                    }
                }
            }
        }
    }

    G81_shining_reforms = {
		icon = mission_order_in_the_domain
		position = 4
		required_missions = {
			G81_woodsmen_drills
            G81_blood_of_iron
		}

        provinces_to_highlight = {
			OR = {
                province_id = 2530
                province_id = 2553
                province_id = 2551
            }
			NOT = { 
                AND = {
                    has_production_building_trigger = yes
                    base_production = 8
                } 
            } 
		}

        trigger = {
            army_professionalism = 0.15
            2530 = {
                has_production_building_trigger = yes
                base_production = 8
            }
            2553 = {
                has_production_building_trigger = yes
                base_production = 8
            }
            2551 = {
                has_production_building_trigger = yes
                base_production = 8
            }
            OR = {
                mil_tech = 8
                army_tradition = 50
            }
        }

        effect = {
            add_country_modifier = {
                name = G81_restructuring_the_army
                duration = 1825
            }
        }
    }

    G81_violet_lords_golden_captains = {
		icon = mission_approach_throne
		position = 5
		required_missions = {
            G81_city_of_violet_cloth
			G81_shining_reforms
            G81_beneath_the_sands
            G81_gold_and_pride
		}

        provinces_to_highlight = {
			superregion = taychend_superregion
			devastation = 1
		}

        trigger = {
            army_professionalism = 0.2
            NOT = {
                has_country_modifier = G81_restructuring_the_army
            }
            stability = 2
            all_owned_province = {
                OR = {
                    NOT = {
                        superregion = taychend_superregion
                    }
                    NOT = {
                        devastation = 1
                    }
                }
            }
            taychend_hero_cult_has_passed_reform = { reform = 5 }
        }

        effect = {
            country_event = {
                id = sthanan_events.5
            }
        }
    }
}

G81_sthanan_column_4 = {
    slot = 4
    generic = no
	ai = yes
	potential = {
		OR = {
			tag = G81
			AND = {
				tag = J84 #Taychendi Empire
				was_tag = G81
			}
			AND = {
				tag = U39 #Orenvalyam
				was_tag = G81
			}
		}
	} 
	has_country_shield = yes

    G81_united_against_invaders = {
		icon = mission_reliable_allies
		position = 1
		required_missions = {
			
		}

        provinces_to_highlight = {
			OR = {
                AND = {
                    owned_by = G76 
                    NOT = {
                        ROOT = {
                            alliance_with = G76
                        }
                        ROOT = {
                            alliance_with = G82
                        }
                    }
                }
                AND = {
                    owned_by = G82 
                    NOT = {
                        ROOT = {
                            alliance_with = G76
                        }
                        ROOT = {
                            alliance_with = G82
                        }
                    }
                }
            }
		}

        trigger = {
            custom_trigger_tooltip = {
                tooltip = G81_united_against_invaders_requirement_tt
                if = {
                    limit = {
                        AND = {
                            OR = {
                                G76 = {
                                    is_enemy = ROOT
                                }
                                G76 = {
                                    exists = no
                                }
                            }
                            OR = {
                                G82 = {
                                    is_enemy = ROOT
                                }
                                G82 = {
                                    exists = no
                                }
                            }
                        }
                    }
                    has_dip_advisor = yes
                }
                else = {
                    OR = {
                        AND = {
                            G76 = {
                                alliance_with = ROOT
                                has_opinion = {
	                                who = ROOT
	                                value = 150
                                }
                            }
                            G82 = {
                                has_been_insulted_by_root = yes
                            }
                        }
                        AND = {
                            G82 = {
                                alliance_with = ROOT
                                has_opinion = {
	                                who = ROOT
	                                value = 150
                                }
                            }
                            G76 = {
                                has_been_insulted_by_root = yes
                            }
                        }
                    }
                }
            }
            num_of_allies = 3
        }

        effect = {
            if = {
                limit = {
                    G76 = {
                        alliance_with = ROOT
                    }
                }
                nagarchend_area = {
                    add_permanent_claim = ROOT
                }
            }
            else_if = {
                limit = {
                    G82 = {
                        alliance_with = ROOT
                    }
                }
                tirsin_area = {
                    add_permanent_claim = ROOT
                }
            }
            else = {
                tirsin_area = {
                    add_permanent_claim = ROOT
                }
                nagarchend_area = {
                    add_permanent_claim = ROOT
                }
            }
            gophira_kendram_area = {
                add_permanent_claim = ROOT
            }
            korrimutren_area = {
                add_permanent_claim = ROOT
            }
            custom_tooltip = G81_united_against_invaders_reward_tt
            hidden_effect = {
                every_ally = {
                    ROOT = {
                        add_favors = {
                            who = PREV
                            amount = 10
                        }
                    }
                    add_trust = {
                        who = ROOT
                        value = 10
                        mutual = yes
                    }
                }
            }
        }
    }

    G81_rebirth = {
		icon = mission_empire
		position = 2
		required_missions = {
            G81_a_revenge_overdue
			G81_united_against_invaders
            G81_seaward_gaze
		}

        provinces_to_highlight = {
            OR = {
                area = nagarchend_area
                area = tirsin_area
                area = gophira_kendram_area
                area = korrimutren_area
                province_id = 2532
            }
            NOT = {
                OR = {
                    country_or_non_sovereign_subject_holds = ROOT
                    owner = {
                        OR = { tag = G76 tag = G82 }
                        alliance_with = ROOT
                    }
                }
            }
        }

        trigger = {
            if = {
                limit = {
                    G76 = {
                        alliance_with = ROOT
                    }
                }
                army_size = G76
                nagarchend_area = {
                    type = all
                    country_or_non_sovereign_subject_holds = ROOT
                }
            }
            else_if = {
                limit = {
                    G82 = {
                        alliance_with = ROOT
                    }
                }
                army_size = G82
                tirsin_area = {
                    type = all
                    country_or_non_sovereign_subject_holds = ROOT
                }
            }
            else = {
                tirsin_area = {
                    type = all
                    country_or_non_sovereign_subject_holds = ROOT
                }
                nagarchend_area = {
                    type = all
                    country_or_non_sovereign_subject_holds = ROOT
                }
            }
            gophira_kendram_area = {
                type = all
                country_or_non_sovereign_subject_holds = ROOT
            }
            korrimutren_area = {
                type = all
                country_or_non_sovereign_subject_holds = ROOT
            }
            2532 = {
                country_or_non_sovereign_subject_holds = ROOT
            }
            OR = {
				has_personal_deity = taychend_glory_3
				has_personal_deity = taychend_glory_4
				has_personal_deity = taychend_glory_5
            }
            has_reform = taychend_kingdom_gov
        }

        effect = {
            country_event = {
                id = sthanan_events.2
            }
        }
    }

    G81_blood_of_iron = {
		icon = mission_iron_and_copper
		position = 3
		required_missions = {
            G81_rebirth
		}

        provinces_to_highlight = {
            OR = {
                area = banderuttai_area
                area = kattisangamar_area 
                area = marhed_rayodana_area
            }
            NOT = {
                country_or_non_sovereign_subject_holds = ROOT
            }
		}

        trigger = {
            banderuttai_area = {
                type = all
                country_or_non_sovereign_subject_holds = ROOT
            }
            kattisangamar_area = {
                type = all
                country_or_non_sovereign_subject_holds = ROOT
            }
            marhed_rayodana_area = {
                type = all
                country_or_non_sovereign_subject_holds = ROOT
            }
            has_estate_privilege = estate_nobles_officer_corp
            estate_loyalty = {
                estate = estate_nobles
                loyalty = 60
            }
            army_tradition = 40
        }

        effect = {
            hidden_effect = {
                if = {
                    limit = {
                        NOT = {
                            any_subject_country = {
                                primary_culture = yodhanpir
                            }
                        }
                    }
                    add_manpower = 4
                    add_army_professionalism = 0.02
                    every_owned_province = {
                        limit = {
                            culture = yodhanpir
                        }
                        add_unrest = 3
                    }
                }
                else_if = {
                    limit = {
                        NOT = {
                            calc_true_if = {
                                amount = 2
                                all_subject_country = {
                                    primary_culture = yodhanpir
                                }
                            }
                        }
                    }
                    add_manpower = 4
                    add_army_professionalism = 0.02
                }
                else_if = {
                    limit = {
                        NOT = {
                            calc_true_if = {
                                amount = 3
                                all_subject_country = {
                                    primary_culture = yodhanpir
                                }
                            }
                        }
                    }
                    add_manpower = 8
                    add_army_professionalism = 0.04
                }
                else_if = {
                    limit = {
                        NOT = {
                            calc_true_if = {
                                amount = 4
                                all_subject_country = {
                                    primary_culture = yodhanpir
                                }
                            }
                        }
                    }
                    add_manpower = 12
                    add_army_professionalism = 0.06
                }
                else_if = {
                    limit = {
                        NOT = {
                            calc_true_if = {
                                amount = 5
                                all_subject_country = {
                                    primary_culture = yodhanpir
                                }
                            }
                        }
                    }
                    add_manpower = 16
                    add_army_professionalism = 0.08
                }
                else = {
                    add_manpower = 20
                    add_army_professionalism = 0.1
                }
            }
            custom_tooltip = G81_blood_of_iron_tt
            every_subject_country = {
                limit = {
                    primary_culture = yodhanpir
                }
                add_liberty_desire = 15
            }
            if = {
                limit = {
                    accepted_culture = yodhanpir
                }
                add_dip_power = 100
            }
            else = {
                add_accepted_culture = yodhanpir
            }
        }
    }

    G81_beneath_the_sands = {
		icon = mission_conquer_air
		position = 4
		required_missions = {
            G81_blood_of_iron
            G81_the_scavenger_cities
		}

        provinces_to_highlight = {
			OR = {
                AND = {
                    OR = {
                        area = sarihaddu_area 
                        area = darkalyndar_area 
                        area = imarchend_area 
                    }
                    NOT = {
                        country_or_non_sovereign_subject_holds = ROOT
                    }
                }
                AND = {
                    OR = {
                        province_id = 2560
                        province_id = 2554
                    } 
                    NOT = {
                        development = 15
                    }
                }
                AND = {
                    OR = {
                        province_id = 6753
                        province_id = 1791
                    } 
                    NOT = {
                        num_of_units_in_province = {
                            who = ROOT
                            amount = 5
                        }
                    }
                }
            }
		}

        trigger = {
            sarihaddu_area = {
                type = all
                country_or_non_sovereign_subject_holds = ROOT
            }
            darkalyndar_area = {
                type = all
                country_or_non_sovereign_subject_holds = ROOT
            }
            imarchend_area = {
                type = all
                country_or_non_sovereign_subject_holds = ROOT
            }
            2560 = {
                development = 15
            }
            2554 = {
                development = 15
            }
            6753 = {
                num_of_units_in_province = {
                    who = ROOT
                    amount = 5
                }
            }
            1791 = {
                num_of_units_in_province = {
                    who = ROOT
                    amount = 5
                }
            }
            accepted_culture = sarihaddi
        }

        effect = {
            hidden_effect = {
                every_owned_province = {
                    limit = {
                        culture = sarihaddi
                    }
                    add_unrest = 3
                }
            }
            custom_tooltip = G81_beneath_the_sands_unrest_tt
            2560 = {
                change_trade_goods = precursor_relics
            }
            2554 = {
                change_trade_goods = precursor_relics
            }
            hidden_effect = {
                6753 = {
                    add_base_tax = -99
                    add_base_production = -99
                    add_base_manpower = -99
                    kill_units = {
                        who = owner
                        amount = 5
                    }
                }
                1791 = {
                    add_base_tax = -99
                    add_base_production = -99
                    add_base_manpower = -99
                    kill_units = {
                        who = owner
                        amount = 5
                    }
                }
            }
            custom_tooltip = G81_beneath_the_sands_dev_tt
        }
    }
}

G81_sthanan_column_5 = {
    slot = 5
    generic = no
	ai = yes
	potential = {
		OR = {
			tag = G81
			AND = {
				tag = J84 #Taychendi Empire
				was_tag = G81
			}
			AND = {
				tag = U39 #Orenvalyam
				was_tag = G81
			}
		}
	} 
	has_country_shield = yes

    G81_seaward_gaze = {
		icon = mission_grand_bengali_shipyards
		position = 1
		required_missions = {

		}
        
        provinces_to_highlight = {
            area = vuls_tenvach_area
			NOT = { 
                country_or_non_sovereign_subject_holds = ROOT 
            }
        }

        trigger = {
            vuls_tenvach_area = {
                type = all
                country_or_non_sovereign_subject_holds = ROOT
            }
            has_estate_privilege = estate_burghers_land_of_commerce
            estate_loyalty = {
                estate = estate_burghers
                loyalty = 60
            }
            treasury = 100
            2515 = { has_any_ongoing_construction = no } #Korrimadhala
        }

        effect = {
            2515 = {
                add_building_construction = { #Korrimadhala
                    building = shipyard
                    speed = 0.5
                    cost = 0
                }
                ROOT = {
                    light_ship = PREV 
                    light_ship = PREV 
                    light_ship = PREV 
                    light_ship = PREV 
                    light_ship = PREV 
                    galley = PREV 
                    galley = PREV 
                    galley = PREV 
                    galley = PREV 
                    galley = PREV 
                }
            }
            add_treasury = -100
        }
    }

    G81_the_scavenger_cities = {
		icon = mission_artificier_experience
		position = 3
		required_missions = {
			G81_rebirth
		}

        provinces_to_highlight = {
            OR = {
                AND = {
                    region = kalavend_region
			        NOT = { 
                        country_or_non_sovereign_subject_holds = ROOT 
                    }
                }
                AND = {
                    OR = {
                        province_id = 2495
                        province_id = 2500
                    }
                    NOT = {
                        has_production_building_trigger = yes
                    }
                }
            }
        }

        trigger = {
            kalavend_region = {
                type = all
                country_or_non_sovereign_subject_holds = ROOT
            }
            2495 = {
                has_production_building_trigger = yes
            }
            2500 = {
                has_production_building_trigger = yes
            }
        }

        effect = {
            country_event = {
                id = sthanan_events.4
            }
            custom_tooltip = G81_the_scavenger_cities_tt
        }
    }

    G81_gold_and_pride = {
		icon = mission_guarded_market
		position = 4
		required_missions = {
			G81_the_scavenger_cities
		}

        provinces_to_highlight = {
            OR = {
                AND = {
                    OR = {
                        area = clematar_area
                        area = urvand_area
                        area = enlarmai_area
                    }
                    NOT = {
                        country_or_non_sovereign_subject_holds = ROOT
                    }
                }
                AND = {
                    OR = {
                        province_id = 2465
                        province_id = 2487
                        province_id = 2484
                    }
                    NOT = {
                        AND = {
                            has_trade_building_trigger = yes
                            province_has_center_of_trade_of_level = 2
                        }
                    }
                }
            }
        }

        trigger = {
            clematar_area = {
                type = all
                country_or_non_sovereign_subject_holds = ROOT
            }
            urvand_area = {
                type = all
                country_or_non_sovereign_subject_holds = ROOT
            }
            enlarmai_area = {
                type = all
                country_or_non_sovereign_subject_holds = ROOT
            }
            2465 = {
                has_trade_building_trigger = yes
                province_has_center_of_trade_of_level = 2
            }
            2487 = {
                has_trade_building_trigger = yes
                province_has_center_of_trade_of_level = 2
            }
            2484 = {
                has_trade_building_trigger = yes
                province_has_center_of_trade_of_level = 2
            }
            OR = {
                2541 = {
                    has_province_modifier = G81_city_of_violet_cloth_modifier
                }
                dip_power = 150
            }
        }

        effect = {
            if = {
                limit = {
                    2541 = {
                        NOT = {
                            has_province_modifier = G81_city_of_violet_cloth_modifier
                        }
                    }
                }
                add_dip_power = -150
            }
            1545 = {
                add_trade_modifier = {
                    who = ROOT
                    duration = -1
                    power = 30
                    key = STRONG_MERCHANTS
                }
            }
            1544 = {
                add_trade_modifier = {
                    who = ROOT
                    duration = -1
                    power = 30
                    key = STRONG_MERCHANTS
                }
            }
            2484 = {
                add_trade_modifier = {
                    who = ROOT
                    duration = -1
                    power = 30
                    key = STRONG_MERCHANTS
                }
            }
        }
    }
}