country_decisions = {

	unite_gray_orc_tribes = {
		major = yes
		potential = {
			OR = {
				primary_culture = gray_orc
				primary_culture = half_orc
			}
			NOT = { exists = Z50 }
			normal_or_historical_nations = yes
			is_free_or_tributary_trigger = yes
			NOT = { has_global_flag = gray_orc_tribes_united }
			capital_scope = { continent = europe }
		}
		provinces_to_highlight = {
			superregion = gerudia_superregion
			NOT = { owned_by = ROOT }
			culture = gray_orc
		}
		allow = {
			hidden_trigger = {
				primary_culture = gray_orc
			}
			is_at_war = no
			if = {
				limit = { tag = Z18 }
				AND = {
					NOT = {
						exists = Z19
					}
					NOT = {
						exists = Z47
					}
				}
			}
			else = {
				NOT = {
					exists = Z18
				}
				owns = 740
			}
		}
		effect = {
			add_country_modifier = {
				name = gray_orc_leader_of_the_gray_orcs
				duration = -1
			}
			add_prestige = 10
			Z19 = {
				remove_historical_friend = Z47
			}
			Z47 = {
				remove_historical_friend = Z19
			}
			set_global_flag = gray_orc_tribes_united
		}
		ai_will_do = {
			factor = 1
		}
		ai_importance = 100
	}
}