

namespace = anbennar_setup

#Country Setup for Monstrous Opinions
country_event = {
	id =  anbennar_setup.1
	title =  anbennar_setup.1.t
	desc =  anbennar_setup.1.d
	picture = WAR_OF_THE_ROSES_eventPicture

	fire_only_once = yes
	is_triggered_only = yes
	hidden = yes

	trigger = {
		#NOT = { is_year = 1444 }
		#NOT = { is_year = 1650 }
		always = yes
	}

	option = {
		name = anbennar_setup.1.a
		
		every_country = {
			limit = { monstrous_culture = yes }
			add_country_modifier = { name = monstrous_nation duration = -1 }
		}

		every_country = {
			limit = { has_country_modifier = monstrous_nation }
			set_country_flag = setup_monstrous_opinion 
			every_country = {
				limit = { NOT = { tag = PREV } } # not the same nation
				if = {
					limit = { NOT = { has_country_modifier = monstrous_nation } }
					if = {
						limit = { PREV = { has_country_flag = semi_monstrous } }
						add_opinion = { who = PREV modifier = semi_monstrous }
						reverse_add_opinion = { who = PREV modifier = semi_monstrous }
					}
					else = {
							add_opinion = { who = PREV modifier = root_monstrous }
							reverse_add_opinion = { who = PREV modifier = root_monstrous }
					}
				}
				else = {
					add_opinion = { who = PREV modifier = both_monstrous }
					reverse_add_opinion = { who = PREV modifier = both_monstrous }
				}
			}
		}
	}
}

#Country Setup for Lilac Wars Parties
country_event = {
	id =  anbennar_setup.2
	title =  anbennar_setup.2.t
	desc =  anbennar_setup.2.d
	picture = WAR_OF_THE_ROSES_eventPicture

	#fire_only_once = yes
	hidden = yes
	is_triggered_only = yes

	trigger = {
		is_year = 1444
		NOT = { is_year = 1445 }
		#NOT = { is_year = 1444 }

		tag = A01	#just for optimization I guess

		NOT = { has_global_flag = init_lilac_wars_parties }
	}


	option = {
		name = "anbennar_setup.2.a"

		set_global_flag = init_lilac_wars_parties

		every_country = {
			limit = {
				OR = {
					has_country_flag = lilac_wars_moon_party
					has_country_flag = lilac_wars_rose_party
				}
			}

			# If you're a member of the Rose Party
			if = {
				limit = {
					has_country_flag = lilac_wars_rose_party
				}
				every_country = {
					limit = {
						NOT = {
                            tag = PREV
							has_opinion_modifier = { who = PREV modifier = lilac_wars_rose_party_member }
                            has_opinion_modifier = { who = PREV modifier = lilac_wars_rose_party_enemy }
						}
					}
                    if = {
                        limit = { has_country_flag = lilac_wars_moon_party } # 'ate moon
                        add_opinion = { who = PREV modifier = lilac_wars_rose_party_enemy }
                    }
                    else_if = {
                        limit = { has_country_flag = lilac_wars_rose_party }  # luv rose
					    add_opinion = { who = PREV modifier = lilac_wars_rose_party_member }
                    }
				}
			}

			# If you're a member of the Moon Party
			else_if = {
				limit = {
					has_country_flag = lilac_wars_moon_party
				}
				add_country_modifier = { 
					name = lilac_wars_moon_party_member_Elect
					duration = 10950 
				}	
				every_country = {
					limit = {
						NOT = {
                            tag = PREV
							has_opinion_modifier = { who = PREV modifier = lilac_wars_moon_party_member }
                            has_opinion_modifier = { who = PREV modifier = lilac_wars_moon_party_enemy }
						}
					}

                    if = {
                        limit = { has_country_flag = lilac_wars_moon_party } # luv moon
					    add_opinion = { who = PREV modifier = lilac_wars_moon_party_member }
                    }
                    else_if = {
                        limit = { has_country_flag = lilac_wars_rose_party } # 'ate rose
                        add_opinion = { who = PREV modifier = lilac_wars_moon_party_enemy }
                    }
				}
			}
		}
	}
}

#Vision for starting discovered territories
country_event = {
	id =  anbennar_setup.3
	title =  anbennar_setup.3.t
	desc =  anbennar_setup.3.d
	picture = WAR_OF_THE_ROSES_eventPicture

	#fire_only_once = yes
	hidden = yes
	is_triggered_only = yes

	trigger = {
		#is_year = 1444 # Always returns true
		NOT = { has_country_flag = init_vision }
	}


	option = {
		name = "anbennar_setup.3.a"

		setup_vision = yes
		#setup_ai_attitude = yes
	}
}

#Pragmatic Sanction and prob other misc initializers
country_event = {
	id =  anbennar_setup.4
	title =  anbennar_setup.4.t
	desc =  anbennar_setup.4.d
	picture = WAR_OF_THE_ROSES_eventPicture

	fire_only_once = yes
	hidden = yes
	is_triggered_only = yes

	# trigger = {
		# NOT = { is_year = 1444 }
	# }

	option = {
		name = "anbennar_setup.4.a"

		#civilized boyos
	  set_allow_female_emperor = yes

	  if = {
			limit = {
				has_dlc = "Art of War"
			}
			set_hre_religion = regent_court
			set_hre_heretic_religion = corinite
	  }
	}
}

#Remove the Monstrous opinion
#Disactivated beccause of monstrous opinion rework
country_event = {
	id =  anbennar_setup.5
	title =  anbennar_setup.5.t
	desc =  anbennar_setup.5.d
	picture = WAR_OF_THE_ROSES_eventPicture

	fire_only_once = yes
	hidden = yes
	is_triggered_only = yes #Disactivated

	trigger = {
		always = no #Disactivated
		is_year = 1651
	}

	option = {
		name = "anbennar_setup.5.a"
		
		every_country = {	#remove all monstrous opinion
			remove_opinion = { who = ROOT modifier = both_monstrous }
			remove_opinion = { who = ROOT modifier = root_monstrous }
		}
		# every_country = {	#If you're not a monstrous nation you hate monstrous nations
			# limit = {
				# #NOT = { has_country_modifier = monstrous_nation }
				# NOT = {
					# has_opinion_modifier = { who = ROOT modifier = root_monstrous }
				# }
			# }
			# remove_opinion = { who = ROOT modifier = root_monstrous }
		# }
		# every_country = {	#If you're a monstrous nation you like other monstrous nations
			# limit = {
				# has_country_modifier = monstrous_nation
				# NOT = {
					# has_opinion_modifier = { who = ROOT modifier = root_monstrous }
				# }
			# }
			# remove_opinion = { who = ROOT modifier = root_monstrous }
		# }
        # if = {
            # limit = {
                # has_country_modifier = monstrous_nation
            # }
			# every_country = {	#If you're a monstrous nation you like other monstrous nations
				# limit = {
					# #has_country_modifier = monstrous_nation
					# NOT = {
						# has_opinion_modifier = { who = ROOT modifier = both_monstrous }
					# }
				# }
				# remove_opinion = { who = ROOT modifier = both_monstrous }
			# }
			# every_country = {	#If you're not a monstrous nation you hate monstrous nations
				# limit = {
					# #NOT = { has_country_modifier = monstrous_nation }
					# NOT = {
						# has_opinion_modifier = { who = ROOT modifier = root_monstrous }
					# }
				# }
				# remove_opinion = { who = ROOT modifier = root_monstrous }
			# }
		# }
        # if = {
            # limit = {
                # NOT = { has_country_modifier = monstrous_nation }
            # }
			# every_country = {	#If you're a monstrous nation you like other monstrous nations
				# limit = {
					# has_country_modifier = monstrous_nation
					# NOT = {
						# has_opinion_modifier = { who = ROOT modifier = root_monstrous }
					# }
				# }
				# remove_opinion = { who = ROOT modifier = root_monstrous }
			# }
		# }
	}
}

#Base Setup for Mage Type
country_event = {
	id =  anbennar_setup.6
	title =  anbennar_setup.6.t
	desc =  anbennar_setup.6.d
	picture = WAR_OF_THE_ROSES_eventPicture
	
	#fire_only_once = yes
	hidden = yes
	is_triggered_only = yes
	
	trigger = {
		NOT = { has_mages_organization_privilege = yes }
		has_estate = estate_mages
	}
	
	option = {
		name = "anbennar_setup.6.a"
		if = {
			limit = {
				has_country_flag = mage_organization_decentralized_flag
			}
			set_estate_privilege = estate_mages_organization_guilds
		}
		else_if = {
			limit = {
				has_country_flag = mage_organization_centralized_flag
				OR = {
					religion = ravelian
					religion = xhazobkult
					religion = skaldhyrric_faith
				}
			}
			set_estate_privilege = estate_mages_organization_religious
		}
		else_if = {
			limit = {
				has_country_flag = mage_organization_centralized_flag
				OR = {
					religion = the_jadd
					religion = bulwari_sun_cult
					religion = old_bulwari_sun_cult
				}
			}
			set_estate_privilege = estate_mages_organization_jaherian_statute
		}
		else_if = {
			limit = {
				has_country_flag = mage_organization_centralized_flag
			}
			set_estate_privilege = estate_mages_organization_state
		}
		else_if = {
			limit = {
				has_country_flag = mage_organization_magisterium_flag
			}
			set_estate_privilege = estate_mages_organization_magisterium
		}
		else = {	#if nothing - THIS IS HANDLED BY MageOrganization Event to allow new countries to choose!
			set_estate_privilege = estate_mages_organization_guilds
		}
	}
}

#Country Setup for Evil Opinions
country_event = {
	id =  anbennar_setup.7
	title =  anbennar_setup.7.t
	desc =  anbennar_setup.7.d
	picture = WAR_OF_THE_ROSES_eventPicture

	#fire_only_once = yes
	hidden = yes
	is_triggered_only = yes
	
	trigger = {
		NOT = { has_country_flag = init_evil_opinion }
	}
	
	option = {
		name = "anbennar_setup.1.a"
		
		set_country_flag = init_evil_opinion
		
        if = {
            limit = {
                has_ruler_modifier = witch_king_modifier
            }
			every_country = {	#If you're a monstrous nation you like other monstrous nations
				limit = {
					has_ruler_modifier = witch_king_modifier
					NOT = {
						has_opinion_modifier = { who = ROOT modifier = both_evil }
					}
				}
				add_opinion = { who = ROOT modifier = both_evil }
			}
			every_country = {	#If you're not a monstrous nation you hate monstrous nations
				limit = {
					NOT = { has_ruler_modifier = witch_king_modifier }
					NOT = {
						has_opinion_modifier = { who = ROOT modifier = root_evil }
					}
				}
				add_opinion = { who = ROOT modifier = root_evil }
			}
		}
        if = {
            limit = {
                NOT = { has_ruler_modifier = witch_king_modifier }
            }
			every_country = {	#If you're a monstrous nation you like other monstrous nations
				limit = {
					has_ruler_modifier = witch_king_modifier
					NOT = {
						has_opinion_modifier = { who = ROOT modifier = root_evil }
					}
				}
				add_opinion = { who = ROOT modifier = root_evil }
			}
		}
	}
}

#Remove the Evil opinion
country_event = {
	id =  anbennar_setup.8
	title =  anbennar_setup.8.t
	desc =  anbennar_setup.8.d
	picture = WAR_OF_THE_ROSES_eventPicture

	hidden = yes
	is_triggered_only = yes

	option = {
		name = "anbennar_setup.5.a"

		every_country = {	#If you're a monstrous nation you like other monstrous nations
			remove_opinion = { who = ROOT modifier = both_evil }
			remove_opinion = { who = ROOT modifier = root_evil }
		}
		# every_country = {	#If you're not a monstrous nation you hate monstrous nations
			# limit = {
				# #NOT = { has_country_modifier = monstrous_nation }
				# NOT = {
					# has_opinion_modifier = { who = ROOT modifier = root_monstrous }
				# }
			# }
			# remove_opinion = { who = ROOT modifier = root_monstrous }
		# }
		# every_country = {	#If you're a monstrous nation you like other monstrous nations
			# limit = {
				# has_country_modifier = monstrous_nation
				# NOT = {
					# has_opinion_modifier = { who = ROOT modifier = root_monstrous }
				# }
			# }
			# remove_opinion = { who = ROOT modifier = root_monstrous }
		# }
        # if = {
            # limit = {
                # has_country_modifier = monstrous_nation
            # }
			# every_country = {	#If you're a monstrous nation you like other monstrous nations
				# limit = {
					# #has_country_modifier = monstrous_nation
					# NOT = {
						# has_opinion_modifier = { who = ROOT modifier = both_monstrous }
					# }
				# }
				# remove_opinion = { who = ROOT modifier = both_monstrous }
			# }
			# every_country = {	#If you're not a monstrous nation you hate monstrous nations
				# limit = {
					# #NOT = { has_country_modifier = monstrous_nation }
					# NOT = {
						# has_opinion_modifier = { who = ROOT modifier = root_monstrous }
					# }
				# }
				# remove_opinion = { who = ROOT modifier = root_monstrous }
			# }
		# }
        # if = {
            # limit = {
                # NOT = { has_country_modifier = monstrous_nation }
            # }
			# every_country = {	#If you're a monstrous nation you like other monstrous nations
				# limit = {
					# has_country_modifier = monstrous_nation
					# NOT = {
						# has_opinion_modifier = { who = ROOT modifier = root_monstrous }
					# }
				# }
				# remove_opinion = { who = ROOT modifier = root_monstrous }
			# }
		# }
	}
}

#Startup Racial Admin and Military at start
country_event = {
	id =  anbennar_setup.9
	title =  anbennar_setup.9.t
	desc =  anbennar_setup.9.d
	picture = WAR_OF_THE_ROSES_eventPicture

	#fire_only_once = yes
	hidden = yes
	is_triggered_only = yes

	trigger = {
		NOT = { has_country_modifier = init_racial_admin_mil }
		OR = {
			has_any_racial_administration = no
			has_any_racial_military = no
		}
		#is_year = 1444
	}

	immediate = {
		# all setup must be done in the immediate, because racial tolerance setup is done in the immediate
		# if this and racial tolerance setup are fired in a row, and this is in an option, racial tolerance setup will complete before this sets any admin/mil!
		add_country_modifier = {
			name = init_racial_admin_mil
			duration = -1
			hidden = yes
		}
		# must be a modifier and not a flag so it disappears if the nation is annexed and released again
		clear_racial_administration = yes
		clear_racial_military = yes

		#Elven
		if = {
			limit = {
				culture_is_elven = yes
				NOT = {
					AND = {
						primary_culture = sun_elf
						capital_scope = { superregion = bulwar_superregion }
						NOT = { tag = F46 }
					}
				}
			}
			add_country_modifier = {
				name = elven_administration
				duration = -1
				hidden = yes
			}
			add_country_modifier = {
				name = elven_military
				duration = -1
				hidden = yes
			}
			if = { limit = { NOT = { has_dlc = "Cradle of Civilization" } }
				add_country_modifier = { 
					name = elven_military_no_dlc
					duration = -1  
				}
			}
		}
		#Elven Bulwari
		if = {
			limit = {
				primary_culture = sun_elf
				capital_scope = { superregion = bulwar_superregion }
			}
			add_country_modifier = {
				name = elven_administration
				duration = -1
				hidden = yes
			}
			add_country_modifier = {
				name = human_military
				duration = -1
				hidden = yes
			}
			apply_sprite_pack = sun_elf_sprite_pack 
			# confusingly named, but the same sprite pack they got previously 
		}
		#Dwarven
		if = {
			limit = {
				culture_is_dwarven = yes
			}
			add_country_modifier = {
				name = dwarven_administration
				duration = -1
				hidden = yes
			}
			add_country_modifier = {
				name = dwarven_military
				duration = -1
				hidden = yes
			}
		}
		#Gnollish
		if = {
			limit = {
				culture_is_gnollish = yes
			}
			add_country_modifier = {
				name = gnollish_administration
				duration = -1
				hidden = yes
			}
			add_country_modifier = {
				name = gnollish_military
				duration = -1
				hidden = yes
			}
		}
		#gnomish
		if = {
			limit = {
				culture_is_gnomish = yes
				NOT = { tag = A80 }
			}
			add_country_modifier = {
				name = gnomish_administration
				duration = -1
				hidden = yes
			}
			add_country_modifier = {
				name = gnomish_military
				duration = -1
				hidden = yes
			}
			add_country_modifier = {
				name = gnomish_military_artificer_buff
				duration = -1
				hidden = yes
			}
		}
		#gnomish monarchy
		if = {
			limit = {
				tag = A80
			}
			add_country_modifier = {
				name = gnomish_administration
				duration = -1
				hidden = yes
			}
			add_country_modifier = {
				name = human_military
				duration = -1
				hidden = yes
			}
		}
		#goblin
		if = {
			limit = {
				culture_is_goblin = yes
			}
			add_country_modifier = {
				name = goblin_administration
				duration = -1
				hidden = yes
			}
			add_country_modifier = {
				name = goblin_military
				duration = -1
				hidden = yes
			}
		}
		#half_elven
		if = {
			limit = {
				culture_is_half_elven = yes
				NOT = {
					tag = Y65
				}
			}
			add_country_modifier = {
				name = half_elven_administration
				duration = -1
				hidden = yes
			}
			add_country_modifier = {
				name = half_elven_military
				duration = -1
				hidden = yes
			}
		}
		#Arawkelin
		if = {
			limit = {
				culture_is_half_elven = yes
				tag = Y65
			}
			add_country_modifier = {
				name = half_elven_administration
				duration = -1
				hidden = yes
			}
			add_country_modifier = {
				name = human_military
				duration = -1
				hidden = yes
			}
		}

		#half_orcish
		if = {
			limit = {
				culture_is_half_orcish = yes
			}
			add_country_modifier = {
				name = half_orcish_administration
				duration = -1
				hidden = yes
			}
			add_country_modifier = {
				name = half_orcish_military
				duration = -1
				hidden = yes
			}
		}
		#halfling
		if = {
			limit = {
				culture_is_halfling = yes
			}
			add_country_modifier = {
				name = halfling_administration
				duration = -1
				hidden = yes
			}
			add_country_modifier = {
				name = halfling_military
				duration = -1
				hidden = yes
			}
		}

		#harpy
		if = {
			limit = {
				culture_is_harpy = yes
			}
			add_country_modifier = {
				name = harpy_administration
				duration = -1
				hidden = yes
			}
			add_country_modifier = {
				name = harpy_military
				duration = -1
				hidden = yes
			}
		}
		#Human
		if = {
			limit = {
				culture_is_human = yes
				NOT = {
					tag = F62
					tag = Y07
				}
			}
			add_country_modifier = {
				name = human_administration
				duration = -1
				hidden = yes
			}
			add_country_modifier = {
				name = human_military
				duration = -1
				hidden = yes
			}
		}

		#Duwarkani
		if = {
			limit = {
				AND = {
					culture_is_human = yes
					tag = F62
				}
			}
			add_country_modifier = {
				name = human_administration
				duration = -1
				hidden = yes
			}
			add_country_modifier = {
				name = harpy_military
				duration = -1
				hidden = yes
			}
			apply_sprite_pack = harpy_sprite_pack
		}
		
		#Guhe
		if = {
			limit = {
				AND = {
					culture_is_human = yes
					tag = Y07
				}
			}
			add_country_modifier = {
				name = human_administration
				duration = -1
				hidden = yes
			}
			add_country_modifier = {
				name = harimari_military
				duration = -1
				hidden = yes
			}
			apply_sprite_pack = harimari_sprite_pack
		}

		#Hisost Yamok
		if = {
			limit = {
				AND = {
					culture_is_human = yes
					tag = S23
				}
			}
			add_country_modifier = {
				name = human_administration
				duration = -1
				hidden = yes
			}
			add_country_modifier = {
				name = gnollish_military
				duration = -1
				hidden = yes
			}
			remove_country_modifier = human_military
			apply_sprite_pack = gnoll_sprite_pack
		}

		#kobold
		if = {
			limit = {
				culture_is_kobold = yes
			}
			add_country_modifier = {
				name = kobold_administration
				duration = -1
				hidden = yes
			}
			add_country_modifier = {
				name = kobold_military
				duration = -1
				hidden = yes
			}
		}
		#orcish
		if = {
			limit = {
				culture_is_orcish = yes
			}
			add_country_modifier = {
				name = orcish_administration
				duration = -1
				hidden = yes
			}
			add_country_modifier = {
				name = orcish_military
				duration = -1
				hidden = yes
			}
		}
		#ruinborn
		if = {
			limit = {
				culture_is_ruinborn = yes
			}
			add_country_modifier = {
				name = ruinborn_administration
				duration = -1
				hidden = yes
			}
			add_country_modifier = {
				name = ruinborn_military
				duration = -1
				hidden = yes
			}
		}
		#troll
		if = {
			limit = {
				culture_is_troll = yes
			}
			add_country_modifier = {
				name = troll_administration
				duration = -1
				hidden = yes
			}
			add_country_modifier = {
				name = troll_military
				duration = -1
				hidden = yes
			}
		}
		#ogre
		if = {
			limit = {
				culture_is_ogre = yes
			}
			add_country_modifier = {
				name = ogre_administration
				duration = -1
				hidden = yes
			}
			add_country_modifier = {
				name = ogre_military
				duration = -1
				hidden = yes
			}
		}
		#centaur
		if = {
			limit = {
				culture_is_centaur = yes
			}
			add_country_modifier = {
				name = centaur_administration
				duration = -1
				hidden = yes
			}
			add_country_modifier = {
				name = centaur_military
				duration = -1
				hidden = yes
			}
		}
		#harimari
		if = {
			limit = {
				culture_is_harimari = yes
			}
			add_country_modifier = {
				name = harimari_administration
				duration = -1
				hidden = yes
			}
			add_country_modifier = {
				name = harimari_military
				duration = -1
				hidden = yes
			}
		}
		#hobgoblin
		if = {
			limit = {
				culture_is_hobgoblin = yes
			}
			add_country_modifier = {
				name = hobgoblin_administration
				duration = -1
				hidden = yes
			}
			add_country_modifier = {
				name = hobgoblin_military
				duration = -1
				hidden = yes
			}
			if = { limit = { NOT = { has_dlc = "Cradle of Civilization" } }
				add_country_modifier = { 
					name = hobgoblin_military_no_dlc
					duration = -1  
				}
			}
		}

		#lizardfolk
		if = {
			limit = {
				culture_is_lizardfolk = yes
			}
			add_country_modifier = {
				name = lizardfolk_administration
				duration = -1
				hidden = yes
			}
			add_country_modifier = {
				name = lizardfolk_military
				duration = -1
				hidden = yes
			}
		}

		#mechanim
		if = {
			limit = {
				culture_is_mechanim = yes
			}
			add_country_modifier = {
				name = mechanim_administration
				duration = -1
				hidden = yes
			}
			add_country_modifier = {
				name = mechanim_military
				duration = -1
				hidden = yes
			}
		}

	}

	option = {
		name = "anbennar_setup.1.a"
	}
}

#Country Setup for Adventurer opinions
country_event = {
	id =  anbennar_setup.10
	title =  anbennar_setup.10.t
	desc =  anbennar_setup.10.d
	picture = WAR_OF_THE_ROSES_eventPicture

	#fire_only_once = yes
	hidden = yes
	is_triggered_only = yes

	trigger = {
		is_year = 1444
		NOT = { is_year = 1445 }
		#NOT = { is_year = 1444 }
		tag = B02	#just for optimization I guess
		NOT = { has_global_flag = init_adventurer_opinion }
	}
	
	option = {
		name = "anbennar_setup.2.a"
		
		set_global_flag = init_adventurer_opinion
		
		every_country = {
			limit = {
				OR = {
					AND = {
						has_reform = adventurer_reform
						capital_scope = { continent = europe }
					}
					tag = B55
					tag = B36
				}
			}
			
			# If you're a adventurer
			if = {
				limit = {
					OR = {
						AND = {
							has_reform = adventurer_reform
							capital_scope = { continent = europe }
						}
						tag = B55
						tag = B36
					}
				}
				every_country = {	# Adventurer likes each other more
					limit = {
						NOT = { tag = PREV }
						OR = {
							AND = {
								has_reform = adventurer_reform
								capital_scope = { continent = europe }
							}
							tag = B55
							tag = B36
						}
					}
					add_opinion = { who = PREV modifier = opinion_fought_alongside_corin }
				}
			}
		}
	}
}

#Base Setup for Adventurer Type
country_event = {
	id =  anbennar_setup.11
	title =  anbennar_setup.11.t
	desc =  anbennar_setup.11.d
	picture = WAR_OF_THE_ROSES_eventPicture
	
	#fire_only_once = yes
	hidden = yes
	is_triggered_only = yes
	
	trigger = {
		NOT = { has_adventurers_organization_privilege = yes }
		has_estate = estate_adventurers
	}
	
	option = {
		name = "anbennar_setup.11.a"
		if = {
			limit = {
				capital_scope = {
					superregion = bulwar_superregion
				}
			}
			set_estate_privilege = estate_adventurers_suhuskar_palace
		}
		else = {
			set_estate_privilege = estate_adventurers_organization_land_of_adventure
		}
	}
}

#Reduce vanilla estate land share to give 30% crown land
country_event = {
	id =  anbennar_setup.12
	title =  anbennar_setup.12.t
	desc =  anbennar_setup.12.d
	picture = WAR_OF_THE_ROSES_eventPicture
	
	fire_only_once = yes
	hidden = yes
	is_triggered_only = yes
	
	trigger = {
		tag = A01
		is_year = 1444
	}
	
	option = {
		name = "anbennar_setup.12.a"

		every_country = {
			limit = { NOT = { crown_land_share = 31 } }
			change_estate_land_share = {
				estate = estate_church
				share = -0.01
			}
			change_estate_land_share = {
				estate = estate_nobles
				share = -0.01
			}
			change_estate_land_share = {
				estate = estate_burghers
				share = -0.01
			}
		}
	}
}

#Stop adventurers from colonizing when they are made
country_event = { #it would be better to have this happen on a five year pulse
	id =  anbennar_setup.13
	title =  anbennar_setup.13.t
	desc =  anbennar_setup.13.d
	picture = WAR_OF_THE_ROSES_eventPicture
	
	#fire_only_once = yes
	hidden = yes
	#is_triggered_only = yes
	
	trigger = {
		OR = {
			has_reform = dwarovar_adventurer_reform
			has_reform = dwarovar_warband
			AND = { #harpies and gnolls shouldn't get
				capital_scope = {
					continent = serpentspine
				}
				has_reform = roaming_horde
			}
		}
		NOT = { num_of_cities = 2 }
		NOT = { has_country_flag = adventurer_setup }
		ai = yes
		was_player = no
	}
	
	mean_time_to_happen = {
		days = 1
	}
	
	option = {
		name = "anbennar_setup.11.a"
		
		if = {
			limit = {
				capital_scope = {
					continent = serpentspine
				}
			}
			if = { #Due to MTTH of 2 months, fast dwarf bois can sometimes get to a hold too fast and get slapped with the timer, especially if things happen in the wrong order. Avoid this.
				limit = {
					capital_scope = {
						NOT = {
							OR = {
								has_terrain = dwarven_hold
								has_terrain = dwarven_hold_surface
							}
						}
					}
				}
				add_country_modifier = {
					name = dont_colonize_but_migrate
					duration = 14600 #40 years
				}
				add_country_modifier = {
					name = warband_attrition_fix #migrating warbands shouldn't have attrition
					duration = 14600
				}
			}
		}
		else = {
			add_country_modifier = {
				name = dont_colonize_but_migrate
				duration = 1095
			}
		}
		add_treasury = 100 #prevent the ai from bankrupting itself if it grabs a hold
		set_country_flag = adventurer_setup
	}
}

country_event = { #refreshes the effects of anbennar_setup.13 for tags reduced to opmhood
	id =  anbennar_setup.14
	title =  anbennar_setup.14.t
	desc =  anbennar_setup.14.d
	picture = WAR_OF_THE_ROSES_eventPicture
	
	#fire_only_once = yes
	hidden = yes
	is_triggered_only = yes
	
	trigger = {
		NOT = { is_year = 1484 }
		OR = {
			has_reform = dwarovar_adventurer_reform
			has_reform = dwarovar_warband
			has_reform = roaming_horde
		}
		NOT = { num_of_cities = 2 }
		NOT = { has_country_flag = colonization_okay }
		NOT = { any_owned_province = { is_colony = yes }}
		ai = yes
		is_year = 1444
	}
	
	option = {
		name = "anbennar_setup.11.a"
		
		if = {
			limit = {
				capital_scope = {
					continent = serpentspine
				}
			}
			add_country_modifier = {
				name = warband_attrition_fix #migrating warbands shouldn't have attrition
				duration = 14600 #40 year
			}
		}
		add_country_modifier = {
			name = dont_colonize_but_migrate
			duration = 14600 #40 years
		}
	}
}

country_event = { #refreshes the colonization buff
	id =  anbennar_setup.15
	title =  anbennar_setup.15.t
	desc =  anbennar_setup.15.d
	picture = WAR_OF_THE_ROSES_eventPicture
	
	#fire_only_once = yes
	hidden = yes
	is_triggered_only = yes
	
	trigger = {
		capital_scope = {
			continent = serpentspine
		}
		num_of_colonists = 1
		NOT = { has_country_modifier = diggy_ai_uprising_buff }
		ai = yes
	}
	
	option = {
		name = "anbennar_setup.11.a"
		add_country_modifier = {
			name = diggy_ai_uprising_buff
			duration = -1
		}
	}
}

# #Stop adventurers from colonizing when they are made
# country_event = {
	# id =  anbennar_setup.16
	# title =  anbennar_setup.16.t
	# desc =  anbennar_setup.16.d
	# picture = WAR_OF_THE_ROSES_eventPicture
	
	# fire_only_once = yes
	# hidden = yes
	# is_triggered_only = yes
	
	# trigger = {
		# tag = A01
	# }
	
	# option = {
		# name = "anbennar_setup.11.a"

		# every_country = {
			# limit = { has_reform = adventurer_reform }

			# add_country_modifier = {
				# name = dont_colonize_but_migrate
				# duration = 730
			# }
		# }
	# }
# }

#country_event = {
#	id =  anbennar_setup.17
#	title =  anbennar_setup.17.t
#	desc =  anbennar_setup.17.d
#	picture = WAR_OF_THE_ROSES_eventPicture
#	
#	#fire_only_once = yes
#	#hidden = yes
#	is_triggered_only = yes
#	
#	trigger = {
#		primary_culture = exodus_goblin
#		NOT = {
#			is_year = 1445
#			has_ruler_flag = exodus_gob_start_buff
#		}
#	}
#
#	
#	option = {
#		name = anbennar_setup.17.a
#
#		set_ruler_flag = exodus_gob_start_buff
#		add_country_modifier = {
#			name = exodus_goblin_invasion
#			duration = 10950 #30 years
#		}
#		capital_scope = {
#			add_unit_construction = {
#				type = infantry
#				amount = 5
#				speed = 0.01
#				cost = 0
#			}
#		}
#		bahar_region = {
#			every_core_country = {
#				limit = {
#					OR = {
#						culture_is_human = yes
#						culture_group = elven
#						culture_group = dwarven
#					}
#				}
#				add_historical_rival = ROOT
#			}
#		}
#	}
#}

#fire artifice setup at the start
country_event = {
	id =  anbennar_setup.18
	title =  anbennar_setup.17.t
	desc =  anbennar_setup.17.d
	picture = WAR_OF_THE_ROSES_eventPicture

	hidden = yes
	is_triggered_only = yes
	
	trigger = {
		NOT = { is_year = 1445 }
	}
	
	immediate = {
		#Artificery Global Setup
		if = {
			limit = {
				tag = A06
			}
			6168 = {
				set_variable = {
					which = GlobalArtificeLimit
					value = 50
				}
			}
		}
		#variables:
		if = {
			limit = {
				NOT = {
					has_country_flag = artifice_set_up
				}
			}
			set_variable = {
				which = StaticArtificePoints
				value = 0
			}
			set_variable = {
				which = ArtificeUpkeep
				value = 0
			}
			#sets initial tier
			set_country_flag = artifice_unlocked_basic
	
			#tracks when you unlock a new tier
			set_variable = {
				which = artifice_level_progress
				value = 0
			}
	
			#tracks researches done before 1650
			set_variable = {
				which = ResearchArtificePoints
				value = 0
			}
	
			#sets up the maximum allowed simultainious active inventions
			set_variable = {
				which = artificers_invention_slots_base
				value = 7
			}
			set_country_flag = artifice_set_up
		}
		#Artificery Local Setup (put you tag here if they start with artificery)
		if = {
			limit = { #arificery only mode and mixed mode
				OR = {
					tag = A06
					tag = A19
				}
			}
			if = { #artificery only mode
				limit = {
					OR = {
						tag = A06
						tag = A19
					}
				}
				set_country_flag = magic_artificery_artificery_only
				#no mages
				country_event = { 
					id = magic_artificery_setup.3
				}
				if = {
					limit = {
						NOT = { crown_land_share = 31 }
					}
					change_estate_land_share = {
						estate = estate_nobles
						share = -3
					}
					change_estate_land_share = {
						estate = estate_burghers
						share = -3
					}
				}
			}
			# if = { #mixed mode
			# 	limit = {
			# 		OR = {
			# 			tag = XYZ
			# 		}
			# 	}
			# 	set_country_flag = magic_artificery_mixed
			# }
			country_event = { 
				id = magic_artificery_setup.2
				days = 1
			}
			update_artifice_points = yes
		}
		else_if = { #mixed mode, but with custom startup event
			limit = {
				tag = A81 #Giberd
			}
			set_country_flag = magic_artificery_mixed
			country_event = {
				id = flavor_giberd.10
				days = 1
			}
		}
		else = {
			set_country_flag = magic_artificery_mage_only
		}
	}
	
	option = {
		name = anbennar_setup.17.a
	}
}

#set up artifice system
country_event = {
	id =  anbennar_setup.19
	title =  anbennar_setup.19.t
	desc =  anbennar_setup.19.d
	picture = WAR_OF_THE_ROSES_eventPicture
	
	hidden = yes
	is_triggered_only = yes
	
	trigger = {
	}
	
	immediate = {
		set_up_artifice_system = yes
	}
	
	option = {
		name = anbennar_setup.17.a
	}
}

#update points when we load the game
country_event = {
	id =  anbennar_setup.20
	title =  anbennar_setup.20.t
	desc =  anbennar_setup.20.d
	picture = WAR_OF_THE_ROSES_eventPicture
	
	hidden = yes
	is_triggered_only = yes
	
	trigger = {
		always = yes
	}
	
	immediate = {
		update_artifice_points = yes
	}
	
	option = {
		name = anbennar_setup.17.a
	}
}

#achievement setup
country_event = {
	id =  anbennar_setup.21
	title =  anbennar_setup.21.t
	desc =  anbennar_setup.21.d
	picture = WAR_OF_THE_ROSES_eventPicture
	
	hidden = yes
	is_triggered_only = yes
	fire_only_once = yes
	
	trigger = {
		ai = no
	}
	
	option = {
		name = anbennar_setup.21.a
		if = {
			limit = {
				NOT = { total_development = 31 }
			}
			set_country_flag = ach_less_than_30_dev_start
		}
	}
}

#Starting Unit Cuts
country_event = {
	id =  anbennar_setup.22
	title =  anbennar_setup.22.t
	desc =  anbennar_setup.22.d
	picture = WAR_OF_THE_ROSES_eventPicture
	
	hidden = yes
	is_triggered_only = yes
	fire_only_once = yes
	
	trigger = {
	}

	immediate = {
		#wild hunt starts with less troops due to Great Incursion
		I78 = {
			capital_scope = {
				kill_units = {
   					who = PREV
					type = cavalry
				 	amount = 11
				}
			}
			5146 = {
				kill_units = {
   					who = I78
					type = cavalry
				 	amount = 2
				}
			}
		}
		#wild hunt's vassals start with less troops due to Great Incursion
		I74 = {
			capital_scope = {
				kill_units = {
    				who = PREV
    				type = cavalry
				    amount = 2
				}
			}
		}
		I72 = {
			capital_scope = {
				kill_units = {
    				who = PREV
    				type = cavalry
				    amount = 2
				}
			}
		}

		#obrtrol navy composition adjustments (they start with way too many boats
		Z17 = {
			capital_scope = {
				kill_units = { #they are way over forcelimit and only gte light ships
					who = PREV
					type = light_ship
					amount = 8
				}
				kill_units = {
					who = PREV
					type = transport
					amount = 2
				}
			}
		}

		# Ping Shuang of Pinghoi ran off with a good chunk of feiten's fleet.
		Y20 = {
			capital_scope = {
				kill_units = {
					who = PREV
					type = light_ship
					amount = 5
				}
				kill_units = {
					who = PREV
					type = transport
					amount = 3
				}
			}
		}
	}
	option = {
		name = anbennar_setup.22.a
	}
}
